Blood Pressure Determinants: Investigating Relationship Between Lead Exposure and High Blood Pressure – sofiyavyshnya
…
Moreover, in the full model, the residuals are normally-distributed with a mean of 0, exhibit no correlation, and have constant variance – meet iid assumptions. In the reduced model, the residual-vs-fitted plot shows some correlation at smaller systolic BP values, suggesting that the model is under-predicting the actual data. The small model is missing some key predictors, leading to omitted variable bias (observed as correlated residuals for small fitted values).

12.3 Posterior Predictive Checks

The smaller model tends to underpredict low values of BPXSY1, suggesting a possible non-linear effect or omission of an important predictor. The relationship linearizes with inclusion of demographic predictors in the full model, however, suggesting omitted variable bias.

12.4 Comparing Models

The full model outperforms the small model in nearly every way. The performance metrics are better (including AIC and BIC, which penalize for including extra parameters; however, the additional demographic predictors were key to modeling systolic blood pressure, so including them outweighed any penalties for increasing the number of features. Also, including demographics corrected the omitted variable bias observed in the residuals-vs-fitted plot.

13 Model Validation

13.1 Calculating Prediction Errors

# A tibble: 393 × 9
   actual pred_small pred_big err_small err_big abs_err_small abs_err_big
    <dbl>      <dbl>    <dbl>     <dbl>   <dbl>         <dbl>       <dbl>
 1    120       130.     131.      9.62   11.2           9.62       11.2 
 2    124       127.     131.      2.98    7.00          2.98        7.00
 3    120       125.     116.      5.29   -3.71          5.29        3.71
 4    132       126.     130.     -5.90   -1.84          5.90        1.84
 5    142       129.     138.    -13.4    -3.68         13.4         3.68
 6    100       128.     125.     28.2    24.7          28.2        24.7 
 7    108       125.     114.     17.5     6.07         17.5         6.07
 8    114       128.     132.     14.3    17.6          14.3        17.6 
 9    158       128.     133.    -29.6   -24.6          29.6        24.6 
10    138       125.     130.    -13.5    -7.85         13.5         7.85
# ℹ 383 more rows
# ℹ 2 more variables: sq_err_small <dbl>, sq_err_big <dbl>
…
